<svg width="24" height="20" viewBox="0 0 24 20" fill="none" xmlns="http://www.w3.org/2000/svg">
<path d="M10.6667 4.66669C10.6667 5.72755 10.2452 6.74497 9.49509 7.49511C8.74495 8.24526 7.72753 8.66669 6.66667 8.66669C5.6058 8.66669 4.58839 8.24526 3.83824 7.49511C3.08809 6.74497 2.66667 5.72755 2.66667 4.66669C2.66667 3.60582 3.08809 2.58841 3.83824 1.83826C4.58839 1.08811 5.6058 0.666687 6.66667 0.666687C7.72753 0.666687 8.74495 1.08811 9.49509 1.83826C10.2452 2.58841 10.6667 3.60582 10.6667 4.66669V4.66669ZM21.3333 4.66669C21.3333 5.19197 21.2299 5.71212 21.0289 6.19742C20.8278 6.68272 20.5332 7.12368 20.1618 7.49511C19.7903 7.86655 19.3494 8.16119 18.8641 8.36221C18.3788 8.56322 17.8586 8.66669 17.3333 8.66669C16.808 8.66669 16.2879 8.56322 15.8026 8.36221C15.3173 8.16119 14.8763 7.86655 14.5049 7.49511C14.1335 7.12368 13.8388 6.68272 13.6378 6.19742C13.4368 5.71212 13.3333 5.19197 13.3333 4.66669C13.3333 3.60582 13.7548 2.58841 14.5049 1.83826C15.2551 1.08811 16.2725 0.666687 17.3333 0.666687C18.3942 0.666687 19.4116 1.08811 20.1618 1.83826C20.9119 2.58841 21.3333 3.60582 21.3333 4.66669V4.66669ZM15.9067 19.3334C15.968 18.8974 16 18.4534 16 18C16.0031 15.9052 15.2983 13.8707 14 12.2267C15.0134 11.6416 16.1631 11.3335 17.3333 11.3335C18.5035 11.3335 19.6531 11.6415 20.6666 12.2266C21.68 12.8117 22.5216 13.6533 23.1068 14.6667C23.6919 15.6802 24 16.8298 24 18V19.3334H15.9067ZM6.66667 11.3334C8.43478 11.3334 10.1305 12.0357 11.3807 13.286C12.631 14.5362 13.3333 16.2319 13.3333 18V19.3334H0V18C0 16.2319 0.702379 14.5362 1.95262 13.286C3.20286 12.0357 4.89856 11.3334 6.66667 11.3334V11.3334Z" fill="#4094F7"/>
</svg>
